%YAML 1.1
%TAG !u! tag:unity3d.com,2011:
--- !u!319 &31900000
AvatarMask:
  m_ObjectHideFlags: 0
  m_CorrespondingSourceObject: {fileID: 0}
  m_PrefabInstance: {fileID: 0}
  m_PrefabAsset: {fileID: 0}
  m_Name: Arms Mask
  m_Mask: 01000000010000000100000001000000010000000100000001000000010000000100000001000000010000000100000001000000
  m_Elements:
  - m_Path: 
    m_Weight: 1
  - m_Path: Body
    m_Weight: 0
  - m_Path: CharacterArmature
    m_Weight: 0
  - m_Path: CharacterArmature/Bone
    m_Weight: 0
  - m_Path: CharacterArmature/Bone/Body 1
    m_Weight: 0
  - m_Path: CharacterArmature/Bone/Body 1/Hips
    m_Weight: 0
  - m_Path: CharacterArmature/Bone/Body 1/Hips/Abdomen
    m_Weight: 0
  - m_Path: CharacterArmature/Bone/Body 1/Hips/Abdomen/Torso
    m_Weight: 0
  - m_Path: CharacterArmature/Bone/Body 1/Hips/Abdomen/Torso/Neck
    m_Weight: 0
  - m_Path: CharacterArmature/Bone/Body 1/Hips/Abdomen/Torso/Neck/Head
    m_Weight: 0
  - m_Path: CharacterArmature/Bone/Body 1/Hips/Abdomen/Torso/Neck/Head/Head_end
    m_Weight: 0
  - m_Path: CharacterArmature/Bone/Body 1/Hips/Abdomen/Torso/Shoulder.L
    m_Weight: 1
  - m_Path: CharacterArmature/Bone/Body 1/Hips/Abdomen/Torso/Shoulder.L/UpperArm.L
    m_Weight: 1
  - m_Path: CharacterArmature/Bone/Body 1/Hips/Abdomen/Torso/Shoulder.L/UpperArm.L/LowerArm.L
    m_Weight: 1
  - m_Path: CharacterArmature/Bone/Body 1/Hips/Abdomen/Torso/Shoulder.L/UpperArm.L/LowerArm.L/Fist.L
    m_Weight: 1
  - m_Path: CharacterArmature/Bone/Body 1/Hips/Abdomen/Torso/Shoulder.L/UpperArm.L/LowerArm.L/Fist.L/Fist.L_end
    m_Weight: 1
  - m_Path: CharacterArmature/Bone/Body 1/Hips/Abdomen/Torso/Shoulder.R
    m_Weight: 1
  - m_Path: CharacterArmature/Bone/Body 1/Hips/Abdomen/Torso/Shoulder.R/UpperArm.R
    m_Weight: 1
  - m_Path: CharacterArmature/Bone/Body 1/Hips/Abdomen/Torso/Shoulder.R/UpperArm.R/LowerArm.R
    m_Weight: 1
  - m_Path: CharacterArmature/Bone/Body 1/Hips/Abdomen/Torso/Shoulder.R/UpperArm.R/LowerArm.R/Fist.R
    m_Weight: 1
  - m_Path: CharacterArmature/Bone/Body 1/Hips/Abdomen/Torso/Shoulder.R/UpperArm.R/LowerArm.R/Fist.R/Fist.R_end
    m_Weight: 1
  - m_Path: CharacterArmature/Bone/Body 1/UpperLeg.L
    m_Weight: 0
  - m_Path: CharacterArmature/Bone/Body 1/UpperLeg.L/LowerLeg.L
    m_Weight: 0
  - m_Path: CharacterArmature/Bone/Body 1/UpperLeg.L/LowerLeg.L/LowerLeg.L_end
    m_Weight: 0
  - m_Path: CharacterArmature/Bone/Body 1/UpperLeg.R
    m_Weight: 0
  - m_Path: CharacterArmature/Bone/Body 1/UpperLeg.R/LowerLeg.R
    m_Weight: 0
  - m_Path: CharacterArmature/Bone/Body 1/UpperLeg.R/LowerLeg.R/LowerLeg.R_end
    m_Weight: 0
  - m_Path: CharacterArmature/Bone/Foot.L
    m_Weight: 0
  - m_Path: CharacterArmature/Bone/Foot.L/Foot.L_end
    m_Weight: 0
  - m_Path: CharacterArmature/Bone/Foot.R
    m_Weight: 0
  - m_Path: CharacterArmature/Bone/Foot.R/Foot.R_end
    m_Weight: 0
  - m_Path: CharacterArmature/Bone/PoleTarget.L
    m_Weight: 0
  - m_Path: CharacterArmature/Bone/PoleTarget.L/PoleTarget.L_end
    m_Weight: 0
  - m_Path: CharacterArmature/Bone/PoleTarget.R
    m_Weight: 0
  - m_Path: CharacterArmature/Bone/PoleTarget.R/PoleTarget.R_end
    m_Weight: 0
